com/example/bookmanagement/exception/ResourceNotFoundException.class
com/example/bookmanagement/entity/BookEntity$BookEntityBuilder.class
com/example/bookmanagement/service/BookService.class
com/example/bookmanagement/dto/BookDto.class
com/example/bookmanagement/config/Constant.class
com/example/bookmanagement/adapter/BookAdapter.class
com/example/bookmanagement/controller/BookController.class
com/example/bookmanagement/entity/BookEntity.class
com/example/bookmanagement/dto/BookDto$BookDtoBuilder.class
com/example/bookmanagement/config/ApplicationConfig.class
com/example/bookmanagement/BookManagementApplication.class
com/example/bookmanagement/repository/BookRepository.class
com/example/bookmanagement/config/SecurityConfig.class
